(
 (:id "sha1:98be770be1428e2bd237067e8516ffe315e7908c" :fingerprints ("sha1:10:50:c5:19:6c:25:bf:a1:a0:91:8b:e5:27:5c:38:85:32:91:69:dc") :host "www.plantuml.com:443" :conditions (:expired :invalid :verify-cert))
)
